---
title: "Calibrating time zones: an early bird or a night owl?"
date: "2020-04-05"
output: blogdown::html_page
tags: ["r", "lubridate"]
---

I studied my step data while in self-quarantine, and happened to fell into the time zone trap. The #twofunctions in lubridate are the rescuers: with_tz() and force_tz().

library(tidyverse)
library(lubridate)

The first lines of data say: I’m not a night 🦉, but 👻 wandering through the dark.

#> # A tibble: 5,458 x 2
#>    date_time           count
#>    <dttm>              <dbl>
#>  1 2018-12-31 03:00:00    26
#>  2 2018-12-31 11:00:00    11
#>  3 2018-12-31 22:00:00   764
#>  4 2018-12-31 23:00:00   913
#>  5 2019-01-01 13:00:00     9
#>  6 2019-01-01 23:00:00  2910
#>  7 2019-01-02 00:00:00  1390
#>  8 2019-01-02 01:00:00  1020
#>  9 2019-01-02 02:00:00   472
#> 10 2019-01-02 04:00:00  1220
#> # … with 5,448 more rows

The story begins with data exported in UTC and read to UTC by default. But the compact data display doesn’t speak of time zone, and we have to get it unpacked to find out.

tz(step_count[["date_time"]])

#> [1] "UTC"

The with_tz() turns the clock to a new time zone, and shifts my life back to normal.

step_count <- step_count %>% 
  mutate(date_time = with_tz(date_time, tzone = "Australia/Melbourne")) %>% 
  filter(year(date_time) == 2019)
step_count

#> # A tibble: 5,448 x 2
#>    date_time           count
#>    <dttm>              <dbl>
#>  1 2019-01-01 09:00:00   764
#>  2 2019-01-01 10:00:00   913
#>  3 2019-01-02 00:00:00     9
#>  4 2019-01-02 10:00:00  2910
#>  5 2019-01-02 11:00:00  1390
#>  6 2019-01-02 12:00:00  1020
#>  7 2019-01-02 13:00:00   472
#>  8 2019-01-02 15:00:00  1220
#>  9 2019-01-02 16:00:00  1670
#> 10 2019-01-02 17:00:00  1390
#> # … with 5,438 more rows
…
