…
#> # A tibble: 3 x 1
#>                                     tutles
#>                                   <turtle>
#> 1  🐢 located at (1, 0); facing 60 degrees
#> 2 🐢 located at (2, 0); facing 120 degrees
#> 3 🐢 located at (3, 0); facing 180 degrees

In the old days, it’s a pain to make sure a new record-type vector works properly. Many methods have to be defined for the class, to name a few: c(), length(), rep(), unique() and as.data.frame(). We can use sloop::s3_methods_class() to find all methods attached to POSIXlt, 34 in total.

sloop::s3_methods_class("POSIXlt")

#> # A tibble: 34 x 4
#>   generic class   visible source
#>   <chr>   <chr>   <lgl>   <chr> 
#> 1 [       POSIXlt TRUE    base  
#> 2 [[      POSIXlt TRUE    base  
#> 3 [[<-    POSIXlt TRUE    base  
#> 4 [<-     POSIXlt TRUE    base  
#> # … with 30 more rows
…
