…
In spirit of group_by(), index_by() takes effect in conjunction with succeeding operations for example summarise(). The following snippet is how we achieve in computing the number of trips every hour. Have you noticed that the displayed interval switches from irregular [!] to one hour [1h]?

hourly_trips <- nycbikes_ts %>% 
  index_by(starthour = floor_date(starttime, unit = "1 hour")) %>% 
  summarise(ntrips = n()) %>% 
  print()

#> # A tsibble: 7,648 x 2 [1h] <America/New_York>
#>   starthour           ntrips
#>   <dttm>               <int>
#> 1 2018-01-01 00:00:00      1
#> 2 2018-01-01 01:00:00      3
#> 3 2018-01-01 02:00:00      3
#> 4 2018-01-01 03:00:00      7
#> # … with 7,644 more rows
…
scan_gaps() reports all implicit missing observations.

count_gaps() summarises the time ranges that are absent from the data.

fill_gaps() turns them into explicit ones, along with filling in gaps by values or functions.

The majority of time gaps congregate between 1am and 5am. We should be able to conclude that the data is not recorded because of no bike use.

scan_gaps(hourly_trips) %>% 
  print() %>% 
  mutate(time = hour(starthour)) %>% 
  ggplot(aes(x = time)) +
  geom_bar()

#> # A tsibble: 368 x 1 [1h] <America/New_York>
#>   starthour          
#>   <dttm>             
#> 1 2018-01-01 05:00:00
#> 2 2018-01-01 07:00:00
#> 3 2018-01-01 23:00:00
#> 4 2018-01-02 01:00:00
#> # … with 364 more rows
…
When a tsibble is set up, it takes care of updating key and index throughout the pipeline. Will two user groups, customers and subscribers, have different bike trip histories during a day? The interested subjects shift from every single bike bikeid to each user type usertype.

usertype_ts <- nycbikes_ts %>% 
  group_by(usertype) %>% 
  index_by(hour = hour(starttime)) %>% 
  summarise(
    avg_tripd = mean(tripduration),
    ntrips = n()
  ) %>% 
  print()

#> # A tsibble: 48 x 4 [1]
#> # Key:       usertype [2]
#>   usertype  hour avg_tripd ntrips
#>   <chr>    <int>     <dbl>  <int>
#> 1 Customer     0     3223.    233
#> 2 Customer     1     3727.    143
#> 3 Customer     2    12099.    120
#> 4 Customer     3    15008.     53
#> # … with 44 more rows
…
