…
The tsibble approach introduces a time-based grouping function–index-by(). This function takes a name-value pair, which defines how the time index is collapsed to higher-level periods, followed by operations like summarise(). It accepts a range of index functions, such as year() for yearly aggregation, as_date() for daily, and ceiling_date() for other options. How about quarterly? Check out yearquarter(). Zoo’s as.yearmth() and as.yearqtr() also work here!

# tsibble
weather_tsbl %>%
  group_by(origin) %>%
  index_by(year_month = yearmonth(time_hour)) %>% 
  summarise(
    avg_temp = mean(temp, na.rm = TRUE),
    ttl_precip = sum(precip, na.rm = TRUE)
  )

#> # A tsibble: 36 x 4 [1M]
#> # Key:       origin [3]
#>   origin year_month avg_temp ttl_precip
#>   <chr>       <mth>    <dbl>      <dbl>
#> 1 EWR      2013 Jan     35.6       3.53
#> 2 EWR      2013 Feb     34.2       3.83
#> 3 EWR      2013 Mar     40.1       3   
#> 4 EWR      2013 Apr     53.0       1.47
#> 5 EWR      2013 May     63.3       5.44
#> # ... with 31 more rows
…
# tsibble
weather_tsbl %>% 
  filter(
    time_hour >= ymd_h("2013-06-01 00", tz = "America/New_York"), 
    time_hour <= ymd_h("2013-07-31 23", tz = "America/New_York")
  )

#> # A tsibble: 4,392 x 4 [1h]
#> # Key:       origin [3]
#> # Groups:    origin [3]
#>   origin time_hour            temp precip
#>   <chr>  <dttm>              <dbl>  <dbl>
#> 1 EWR    2013-06-01 00:00:00  78.1      0
#> 2 EWR    2013-06-01 01:00:00  77        0
#> 3 EWR    2013-06-01 02:00:00  75.9      0
#> 4 EWR    2013-06-01 03:00:00  73.9      0
#> 5 EWR    2013-06-01 04:00:00  73.0      0
#> # ... with 4,387 more rows
…
